<!DOCTYPE svg PUBLIC "-//W3C//DTD SVG 1.1//EN" "http://www.w3.org/Graphics/SVG/1.1/DTD/svg11.dtd">
<svg width="42px" height="42px" version="1.1" preserveAspectRatio="xMinYMin none" color="black" xmlns="http://www.w3.org/2000/svg">



  <g transform="translate(21,21)">

      <circle transform="translate(21,21)" fill="transparent" stroke="#6B6B6B" stroke-width="3px" cx="0" cy="0" r="20px" style="stroke-dasharray:10, 22;shadow:10px 10px 10px #000000">
        <animateTransform attributeType="xml" attributeName="transform" type="rotate" from="0" to="360" begin="-20" dur="3s" repeatCount="indefinite" />
      </circle>
      <circle fill="transparent" stroke="#ccc" stroke-width="2px" cx="0" cy="0" r="17px"/>



</g>

</svg>







